{
  "name": "microbit-MQTT",
  "version": "1.0.0",
  "description": "Acceleration information via MQTT.",
  "license": "MIT",
  "dependencies": {
    "microbit": "lancaster-university/microbit#v2.0.0-rc11"
  },
  "targetDependencies": {},
  "bin": "./source"
}
